%YAML 1.1
%TAG !u! tag:unity3d.com,2011:
--- !u!1001 &4147208269409258858
PrefabInstance:
  m_ObjectHideFlags: 0
  serializedVersion: 2
  m_Modification:
    m_TransformParent: {fileID: 0}
    m_Modifications:
    - target: {fileID: 4787499493672874364, guid: f8cbe4e84bc414ad188f15fce2f7eefc,
        type: 3}
      propertyPath: m_Name
      value: ConnectorD3
      objectReference: {fileID: 0}
    - target: {fileID: 4787499493672874336, guid: f8cbe4e84bc414ad188f15fce2f7eefc,
        type: 3}
      propertyPath: m_LocalPosition.x
      value: 0
      objectReference: {fileID: 0}
    - target: {fileID: 4787499493672874336, guid: f8cbe4e84bc414ad188f15fce2f7eefc,
        type: 3}
      propertyPath: m_LocalPosition.y
      value: 0
      objectReference: {fileID: 0}
    - target: {fileID: 4787499493672874336, guid: f8cbe4e84bc414ad188f15fce2f7eefc,
        type: 3}
      propertyPath: m_LocalPosition.z
      value: 0
      objectReference: {fileID: 0}
    - target: {fileID: 4787499493672874336, guid: f8cbe4e84bc414ad188f15fce2f7eefc,
        type: 3}
      propertyPath: m_LocalRotation.x
      value: 0
      objectReference: {fileID: 0}
    - target: {fileID: 4787499493672874336, guid: f8cbe4e84bc414ad188f15fce2f7eefc,
        type: 3}
      propertyPath: m_LocalRotation.y
      value: 0
      objectReference: {fileID: 0}
    - target: {fileID: 4787499493672874336, guid: f8cbe4e84bc414ad188f15fce2f7eefc,
        type: 3}
      propertyPath: m_LocalRotation.z
      value: 0
      objectReference: {fileID: 0}
    - target: {fileID: 4787499493672874336, guid: f8cbe4e84bc414ad188f15fce2f7eefc,
        type: 3}
      propertyPath: m_LocalRotation.w
      value: 1
      objectReference: {fileID: 0}
    - target: {fileID: 4787499493672874336, guid: f8cbe4e84bc414ad188f15fce2f7eefc,
        type: 3}
      propertyPath: m_RootOrder
      value: 0
      objectReference: {fileID: 0}
    - target: {fileID: 4787499493672874336, guid: f8cbe4e84bc414ad188f15fce2f7eefc,
        type: 3}
      propertyPath: m_LocalEulerAnglesHint.x
      value: 0
      objectReference: {fileID: 0}
    - target: {fileID: 4787499493672874336, guid: f8cbe4e84bc414ad188f15fce2f7eefc,
        type: 3}
      propertyPath: m_LocalEulerAnglesHint.y
      value: 0
      objectReference: {fileID: 0}
    - target: {fileID: 4787499493672874336, guid: f8cbe4e84bc414ad188f15fce2f7eefc,
        type: 3}
      propertyPath: m_LocalEulerAnglesHint.z
      value: 0
      objectReference: {fileID: 0}
    - target: {fileID: 4787499493672874337, guid: f8cbe4e84bc414ad188f15fce2f7eefc,
        type: 3}
      propertyPath: m_Sprite
      value: 
      objectReference: {fileID: 21300000, guid: fc54c0ff920d38e4b84a3050a14d7bea,
        type: 3}
    - target: {fileID: 4787499493672874338, guid: f8cbe4e84bc414ad188f15fce2f7eefc,
        type: 3}
      propertyPath: m_Mass
      value: 2
      objectReference: {fileID: 0}
    - target: {fileID: 4787499493672874339, guid: f8cbe4e84bc414ad188f15fce2f7eefc,
        type: 3}
      propertyPath: m_Enabled
      value: 0
      objectReference: {fileID: 0}
    - target: {fileID: 4787499493672874339, guid: f8cbe4e84bc414ad188f15fce2f7eefc,
        type: 3}
      propertyPath: m_Anchor.x
      value: 0.042378306
      objectReference: {fileID: 0}
    - target: {fileID: 4787499493672874339, guid: f8cbe4e84bc414ad188f15fce2f7eefc,
        type: 3}
      propertyPath: m_Anchor.y
      value: 0.20869148
      objectReference: {fileID: 0}
    - target: {fileID: 4787499493672874339, guid: f8cbe4e84bc414ad188f15fce2f7eefc,
        type: 3}
      propertyPath: m_ConnectedAnchor.x
      value: 0.042378306
      objectReference: {fileID: 0}
    - target: {fileID: 4787499493672874339, guid: f8cbe4e84bc414ad188f15fce2f7eefc,
        type: 3}
      propertyPath: m_ConnectedAnchor.y
      value: 0.20869148
      objectReference: {fileID: 0}
    - target: {fileID: 4787499493672874343, guid: f8cbe4e84bc414ad188f15fce2f7eefc,
        type: 3}
      propertyPath: m_SpriteTilingProperty.oldSize.x
      value: 3.03
      objectReference: {fileID: 0}
    - target: {fileID: 4787499493672874343, guid: f8cbe4e84bc414ad188f15fce2f7eefc,
        type: 3}
      propertyPath: m_SpriteTilingProperty.oldSize.y
      value: 0.97
      objectReference: {fileID: 0}
    - target: {fileID: 4787499493672874343, guid: f8cbe4e84bc414ad188f15fce2f7eefc,
        type: 3}
      propertyPath: m_Offset.x
      value: 0.017629564
      objectReference: {fileID: 0}
    - target: {fileID: 4787499493672874343, guid: f8cbe4e84bc414ad188f15fce2f7eefc,
        type: 3}
      propertyPath: m_Size.x
      value: 2.0949068
      objectReference: {fileID: 0}
    - target: {fileID: 4787499493672874343, guid: f8cbe4e84bc414ad188f15fce2f7eefc,
        type: 3}
      propertyPath: m_Offset.y
      value: -0.178283
      objectReference: {fileID: 0}
    - target: {fileID: 4787499493672874343, guid: f8cbe4e84bc414ad188f15fce2f7eefc,
        type: 3}
      propertyPath: m_Size.y
      value: 0.48801476
      objectReference: {fileID: 0}
    - target: {fileID: 5267945090137988964, guid: f8cbe4e84bc414ad188f15fce2f7eefc,
        type: 3}
      propertyPath: m_LocalPosition.x
      value: 1.207
      objectReference: {fileID: 0}
    - target: {fileID: 5267945090137988964, guid: f8cbe4e84bc414ad188f15fce2f7eefc,
        type: 3}
      propertyPath: m_LocalPosition.y
      value: -0.187
      objectReference: {fileID: 0}
    - target: {fileID: 2380643717223953303, guid: f8cbe4e84bc414ad188f15fce2f7eefc,
        type: 3}
      propertyPath: m_LocalPosition.x
      value: 0.044
      objectReference: {fileID: 0}
    - target: {fileID: 2380643717223953303, guid: f8cbe4e84bc414ad188f15fce2f7eefc,
        type: 3}
      propertyPath: m_LocalPosition.y
      value: 0.202
      objectReference: {fileID: 0}
    m_RemovedComponents: []
  m_SourcePrefab: {fileID: 100100000, guid: f8cbe4e84bc414ad188f15fce2f7eefc, type: 3}
--- !u!4 &8934379278792424458 stripped
Transform:
  m_CorrespondingSourceObject: {fileID: 4787499493672874336, guid: f8cbe4e84bc414ad188f15fce2f7eefc,
    type: 3}
  m_PrefabInstance: {fileID: 4147208269409258858}
  m_PrefabAsset: {fileID: 0}
--- !u!1001 &8016847212268698965
PrefabInstance:
  m_ObjectHideFlags: 0
  serializedVersion: 2
  m_Modification:
    m_TransformParent: {fileID: 8934379278792424458}
    m_Modifications:
    - target: {fileID: 3679196773928532525, guid: 6f0dced475aab164baaa6a9eb124e911,
        type: 3}
      propertyPath: m_Name
      value: LegSocket (1)
      objectReference: {fileID: 0}
    - target: {fileID: 2141917743418457217, guid: 6f0dced475aab164baaa6a9eb124e911,
        type: 3}
      propertyPath: m_LocalPosition.x
      value: -1.199
      objectReference: {fileID: 0}
    - target: {fileID: 2141917743418457217, guid: 6f0dced475aab164baaa6a9eb124e911,
        type: 3}
      propertyPath: m_LocalPosition.y
      value: -0.168
      objectReference: {fileID: 0}
    - target: {fileID: 2141917743418457217, guid: 6f0dced475aab164baaa6a9eb124e911,
        type: 3}
      propertyPath: m_LocalPosition.z
      value: 0
      objectReference: {fileID: 0}
    - target: {fileID: 2141917743418457217, guid: 6f0dced475aab164baaa6a9eb124e911,
        type: 3}
      propertyPath: m_LocalRotation.x
      value: 0
      objectReference: {fileID: 0}
    - target: {fileID: 2141917743418457217, guid: 6f0dced475aab164baaa6a9eb124e911,
        type: 3}
      propertyPath: m_LocalRotation.y
      value: 0
      objectReference: {fileID: 0}
    - target: {fileID: 2141917743418457217, guid: 6f0dced475aab164baaa6a9eb124e911,
        type: 3}
      propertyPath: m_LocalRotation.z
      value: 0
      objectReference: {fileID: 0}
    - target: {fileID: 2141917743418457217, guid: 6f0dced475aab164baaa6a9eb124e911,
        type: 3}
      propertyPath: m_LocalRotation.w
      value: 1
      objectReference: {fileID: 0}
    - target: {fileID: 2141917743418457217, guid: 6f0dced475aab164baaa6a9eb124e911,
        type: 3}
      propertyPath: m_RootOrder
      value: 3
      objectReference: {fileID: 0}
    - target: {fileID: 2141917743418457217, guid: 6f0dced475aab164baaa6a9eb124e911,
        type: 3}
      propertyPath: m_LocalEulerAnglesHint.x
      value: 0
      objectReference: {fileID: 0}
    - target: {fileID: 2141917743418457217, guid: 6f0dced475aab164baaa6a9eb124e911,
        type: 3}
      propertyPath: m_LocalEulerAnglesHint.y
      value: 0
      objectReference: {fileID: 0}
    - target: {fileID: 2141917743418457217, guid: 6f0dced475aab164baaa6a9eb124e911,
        type: 3}
      propertyPath: m_LocalEulerAnglesHint.z
      value: 0
      objectReference: {fileID: 0}
    m_RemovedComponents: []
  m_SourcePrefab: {fileID: 100100000, guid: 6f0dced475aab164baaa6a9eb124e911, type: 3}
